<?xml version="1.0" encoding="utf-8"?>
<!-- Generator: Adobe Illustrator 21.0.1, SVG Export Plug-In . SVG Version: 6.00 Build 0)  -->
<svg version="1.1" id="Layer_1" xmlns="http://www.w3.org/2000/svg" xmlns:xlink="http://www.w3.org/1999/xlink" x="0px" y="0px"
	 viewBox="0 0 48 19" style="enable-background:new 0 0 48 19;" xml:space="preserve">
<style type="text/css">
	.st0{fill:none;stroke:#070768;stroke-width:3;stroke-miterlimit:10;}
	.st1{fill:none;stroke:#070768;stroke-width:3;stroke-linecap:square;stroke-miterlimit:10;}
</style>
<line id="butt_color_61_" class="st0" x1="48" y1="9.5" x2="3" y2="9.5"/>
<polyline class="st1" points="10,2.5 3,9.5 10,16.5 "/>
</svg>
