<?xml version="1.0" encoding="utf-8"?>
<!-- Generator: Adobe Illustrator 21.0.2, SVG Export Plug-In . SVG Version: 6.00 Build 0)  -->
<svg version="1.1" id="Layer_1" xmlns="http://www.w3.org/2000/svg" xmlns:xlink="http://www.w3.org/1999/xlink" x="0px" y="0px"
	 viewBox="0 0 178 19" style="enable-background:new 0 0 178 19;" xml:space="preserve">
<style type="text/css">
	.st0{fill:#E5AC39;}
</style>
<g>
	<path class="st0" d="M0.2,15.5l0.9-1.1c1.1,1.3,2.9,2.5,5.3,2.5c3.5,0,4.5-1.9,4.5-3.4c0-5-10.2-2.4-10.2-8.4
		c0-2.8,2.5-4.5,5.6-4.5c2.5,0,4.5,0.9,5.8,2.4l-1,1.1c-1.2-1.5-3-2.1-4.9-2.1c-2.3,0-4,1.3-4,3.1c0,4.4,10.2,2,10.2,8.3
		c0,2.2-1.5,4.8-6.1,4.8C3.6,18.2,1.5,17.1,0.2,15.5z"/>
	<path class="st0" d="M32.3,17.9v-17h6.4c3.3,0,5.1,2.3,5.1,5s-1.9,5-5.1,5h-4.9v7.1H32.3z M42.3,5.8c0-2.1-1.5-3.7-3.8-3.7h-4.8
		v7.3h4.8C40.8,9.5,42.3,8,42.3,5.8z"/>
	<path class="st0" d="M75.5,17.9V9.8H64.7v8.1h-1.5v-17h1.5v7.6h10.8V0.9H77v17H75.5z"/>
	<path class="st0" d="M102.6,17.9v-7.3l-6.8-9.8h1.8l5.8,8.4l5.8-8.4h1.8l-6.8,9.8v7.3H102.6z"/>
	<path class="st0" d="M141.9,17.9L131.2,3.3v14.6h-1.5v-17h1.5l10.7,14.4V0.9h1.5v17H141.9z"/>
	<path class="st0" d="M176,17.9l-6-7.7l-5.9,7.7h-1.8l6.8-8.7l-6.5-8.3h1.8l5.5,7.2l5.5-7.2h1.8L171,9.1l6.8,8.8H176z"/>
</g>
</svg>
